<svg width="60" height="60" viewBox="0 0 60 60" fill="none" xmlns="http://www.w3.org/2000/svg">
<path d="M13.125 46.875H46.875" stroke="#160042" stroke-width="3" stroke-linecap="round" stroke-linejoin="round"/>
<path d="M46.875 39.375H13.125V19.375L22.5 23.75L30 13.125L37.5 23.75L46.875 19.375V39.375Z" stroke="#160042" stroke-width="3" stroke-linecap="round" stroke-linejoin="round"/>
</svg>
