<svg width="60" height="60" viewBox="0 0 60 60" fill="none" xmlns="http://www.w3.org/2000/svg">
<path d="M17.5 30C17.5 36.9036 23.0964 42.5 30 42.5C36.9036 42.5 42.5 36.9036 42.5 30C42.5 23.0964 36.9036 17.5 30 17.5C23.0964 17.5 17.5 23.0964 17.5 30Z" stroke="#160042" stroke-width="3"/>
<path d="M30 13.125V17.5" stroke="#160042" stroke-width="3" stroke-linecap="round" stroke-linejoin="round"/>
<path d="M30 42.5V46.875" stroke="#160042" stroke-width="3" stroke-linecap="round" stroke-linejoin="round"/>
<path d="M46.875 30L42.5 30" stroke="#160042" stroke-width="3" stroke-linecap="round" stroke-linejoin="round"/>
<path d="M17.5 30L13.125 30" stroke="#160042" stroke-width="3" stroke-linecap="round" stroke-linejoin="round"/>
</svg>
