<svg width="100" height="100" viewBox="0 0 100 100" fill="none" xmlns="http://www.w3.org/2000/svg">
<rect x="21.875" y="21.875" width="56.25" height="56.25" rx="3.5" stroke="#223741" stroke-width="5"/>
<path d="M62.4932 49.5867C62.5474 51.2273 62.278 52.8626 61.7003 54.3991C61.1226 55.9356 60.248 57.3433 59.1263 58.5418C58.0045 59.7402 56.6577 60.706 55.1628 61.384C53.6678 62.062 52.0539 62.4389 50.4133 62.4932C48.7727 62.5474 47.1374 62.278 45.6009 61.7003C44.0644 61.1226 42.6567 60.248 41.4582 59.1263C40.2598 58.0045 39.294 56.6577 38.616 55.1628C37.938 53.6678 37.5611 52.0539 37.5068 50.4133C37.4526 48.7727 37.722 47.1374 38.2997 45.6009C38.8774 44.0644 39.752 42.6567 40.8737 41.4582C41.9955 40.2598 43.3423 39.294 44.8372 38.616C46.3322 37.938 47.9461 37.5611 49.5867 37.5068C51.2273 37.4526 52.8626 37.722 54.3991 38.2997C55.9356 38.8774 57.3433 39.752 58.5418 40.8737C59.7402 41.9955 60.706 43.3423 61.384 44.8372C62.062 46.3322 62.4389 47.9461 62.4932 49.5867Z" stroke="#223741" stroke-width="5" stroke-linecap="round" stroke-linejoin="round"/>
<path d="M65.5833 34.375H65.625" stroke="#223741" stroke-width="5" stroke-linecap="round" stroke-linejoin="round"/>
</svg>
